           __                                                                                       
          |  \                                                                                      
  _______ | $$____    ______    _______   _______         ______    ______   ______ ____    ______  
 /       \| $$    \  /      \  /       \ /       \       /      \  |      \ |      \    \  /      \ 
|  $$$$$$$| $$$$$$$\|  $$$$$$\|  $$$$$$$|  $$$$$$$      |  $$$$$$\  \$$$$$$\| $$$$$$\$$$$\|  $$$$$$\
| $$      | $$  | $$| $$    $$ \$$    \  \$$    \       | $$  | $$ /      $$| $$ | $$ | $$| $$    $$
| $$_____ | $$  | $$| $$$$$$$$ _\$$$$$$\ _\$$$$$$\      | $$__| $$|  $$$$$$$| $$ | $$ | $$| $$$$$$$$
 \$$     \| $$  | $$ \$$     \|       $$|       $$       \$$    $$ \$$    $$| $$ | $$ | $$ \$$     \
  \$$$$$$$ \$$   \$$  \$$$$$$$ \$$$$$$$  \$$$$$$$        _\$$$$$$$  \$$$$$$$ \$$  \$$  \$$  \$$$$$$$
                                                        |  \__| $$                                  
                                                         \$$    $$                                  
                                                          \$$$$$$                                   
                                                                                                             
                                                     _:_     
                                                    '-.-'    
                                           ()      __.'.__   
                                        .-:--:-.  |_______|  
                                 ()      \____/    \=====/      ()  
                                 /\      {====}     )___(       /\   
                      (\=,      //\\      )__(     /_____\     //\\    (\=,  
      __    |'-'-'|  //  .\    (    )    /____\     |   |     (    )  //  .\    |'-'-'|    __  
     /  \   |_____| (( \_  \    )__(      |  |      |   |      )__(  (( \_  \   |_____|   /  \  
     \__/    |===|   ))  `\_)  /____\     |  |      |   |     /____\  ))  `\_)   |===|    \__/  
    /____\   |   |  (/     \    |  |      |  | 	    |   |      |  |   (/     \   |   |   /____\   
     |  |    |   |   | _.-'|    |  |      |  |     	|   |      |  |    | _.-'|   |   |    |  |  
     |__|    )___(    )___(    /____\    /____\    /_____\    /____\    )___(    )___(    |__|  
    (====)  (=====)  (=====)  (======)  (======)  (=======)  (======)  (=====)  (=====)  (====) 
    }===={  }====={  }====={  }======{  }======{  }======={  }======{  }====={  }====={  }===={ 
   (______)(_______)(_______)(________)(________)(_________)(________)(_______)(_______)(______)